f1d402,127.0.0.1,GET,http://megaman3d.local/app_dev.php/texture,1544740533,48efc8,200
48efc8,127.0.0.1,GET,http://megaman3d.local/app_dev.php/texture,1544740533,,500
4ca67d,127.0.0.1,GET,http://megaman3d.local/app_dev.php/texture,1544740666,f2fb65,200
f2fb65,127.0.0.1,GET,http://megaman3d.local/app_dev.php/texture,1544740666,,500
173d64,127.0.0.1,GET,http://megaman3d.local/app_dev.php/texture,1544740690,a327a2,200
a327a2,127.0.0.1,GET,http://megaman3d.local/app_dev.php/texture,1544740690,,500
6e1c7f,127.0.0.1,GET,http://megaman3d.local/app_dev.php/,1544741237,,200
e11822,127.0.0.1,GET,http://megaman3d.local/app_dev.php/personnages,1544741239,,200
1fd1d7,127.0.0.1,GET,http://megaman3d.local/app_dev.php/play,1544741240,,200
95662b,127.0.0.1,GET,http://megaman3d.local/app_dev.php/js/routing?callback=fos.Router.setData,1544741240,,200
069678,127.0.0.1,GET,http://megaman3d.local/app_dev.php/loadPlayer,1544741240,,200
c8b160,127.0.0.1,GET,http://megaman3d.local/app_dev.php/armory/1,1544741240,,200
8e4179,127.0.0.1,GET,http://megaman3d.local/app_dev.php/play,1544741375,,200
e0c3bf,127.0.0.1,GET,http://megaman3d.local/app_dev.php/js/routing?callback=fos.Router.setData,1544741375,,200
d8f752,127.0.0.1,GET,http://megaman3d.local/app_dev.php/loadPlayer,1544741376,,200
957b6c,127.0.0.1,GET,http://megaman3d.local/app_dev.php/armory/1,1544741376,,200
4a2f97,127.0.0.1,GET,http://megaman3d.local/app_dev.php/play,1544741401,,200
6ed037,127.0.0.1,GET,http://megaman3d.local/app_dev.php/js/routing?callback=fos.Router.setData,1544741401,,200
e96da8,127.0.0.1,GET,http://megaman3d.local/app_dev.php/loadPlayer,1544741401,,200
021eba,127.0.0.1,GET,http://megaman3d.local/app_dev.php/armory/1,1544741402,,200
6c0d15,127.0.0.1,GET,http://megaman3d.local/app_dev.php/play,1544741464,,200
25a24e,127.0.0.1,GET,http://megaman3d.local/app_dev.php/js/routing?callback=fos.Router.setData,1544741464,,200
f97678,127.0.0.1,GET,http://megaman3d.local/app_dev.php/loadPlayer,1544741464,,200
00ab5a,127.0.0.1,GET,http://megaman3d.local/app_dev.php/armory/1,1544741465,,200
3bba7f,127.0.0.1,GET,http://megaman3d.local/app_dev.php/play,1544741520,,200
9527b7,127.0.0.1,GET,http://megaman3d.local/app_dev.php/js/routing?callback=fos.Router.setData,1544741520,,200
1558ac,127.0.0.1,GET,http://megaman3d.local/app_dev.php/loadPlayer,1544741520,,200
67f05d,127.0.0.1,GET,http://megaman3d.local/app_dev.php/armory/1,1544741521,,200
1b1fc2,127.0.0.1,GET,http://megaman3d.local/app_dev.php/play,1544741540,,200
161b31,127.0.0.1,GET,http://megaman3d.local/app_dev.php/js/routing?callback=fos.Router.setData,1544741540,,200
02d59e,127.0.0.1,GET,http://megaman3d.local/app_dev.php/loadPlayer,1544741540,,200
e458a2,127.0.0.1,GET,http://megaman3d.local/app_dev.php/armory/1,1544741541,,200
967403,127.0.0.1,GET,http://megaman3d.local/app_dev.php/play,1544741632,,200
245b8e,127.0.0.1,GET,http://megaman3d.local/app_dev.php/js/routing?callback=fos.Router.setData,1544741632,,200
afc6af,127.0.0.1,GET,http://megaman3d.local/app_dev.php/loadPlayer,1544741632,,200
a4c3d5,127.0.0.1,GET,http://megaman3d.local/app_dev.php/armory/1,1544741632,,200
a855e4,127.0.0.1,GET,http://megaman3d.local/app_dev.php/play,1544741671,,200
72cdeb,127.0.0.1,GET,http://megaman3d.local/app_dev.php/js/routing?callback=fos.Router.setData,1544741671,,200
26de3a,127.0.0.1,GET,http://megaman3d.local/app_dev.php/loadPlayer,1544741673,,200
145e59,127.0.0.1,GET,http://megaman3d.local/app_dev.php/armory/1,1544741673,,200
7d4df7,127.0.0.1,GET,http://megaman3d.local/app_dev.php/play,1544741698,,200
7bbbe4,127.0.0.1,GET,http://megaman3d.local/app_dev.php/js/routing?callback=fos.Router.setData,1544741698,,200
cfb180,127.0.0.1,GET,http://megaman3d.local/app_dev.php/loadPlayer,1544741699,,200
40ad19,127.0.0.1,GET,http://megaman3d.local/app_dev.php/armory/1,1544741699,,200
54256d,127.0.0.1,GET,http://megaman3d.local/app_dev.php/play,1544741747,,200
5c1f1b,127.0.0.1,GET,http://megaman3d.local/app_dev.php/js/routing?callback=fos.Router.setData,1544741747,,200
4b1a20,127.0.0.1,GET,http://megaman3d.local/app_dev.php/loadPlayer,1544741747,,200
727699,127.0.0.1,GET,http://megaman3d.local/app_dev.php/armory/1,1544741748,,200
22894b,127.0.0.1,GET,http://megaman3d.local/app_dev.php/play,1544741762,,200
d1ee31,127.0.0.1,GET,http://megaman3d.local/app_dev.php/js/routing?callback=fos.Router.setData,1544741762,,200
78eb6b,127.0.0.1,GET,http://megaman3d.local/app_dev.php/loadPlayer,1544741762,,200
bf24d1,127.0.0.1,GET,http://megaman3d.local/app_dev.php/armory/1,1544741762,,200
8924e2,127.0.0.1,GET,http://megaman3d.local/app_dev.php/play,1544741884,,200
71a1ea,127.0.0.1,GET,http://megaman3d.local/app_dev.php/js/routing?callback=fos.Router.setData,1544741885,,200
7d55d3,127.0.0.1,GET,http://megaman3d.local/app_dev.php/loadPlayer,1544741885,,200
54034c,127.0.0.1,GET,http://megaman3d.local/app_dev.php/play,1544741887,,200
eefc37,127.0.0.1,GET,http://megaman3d.local/app_dev.php/js/routing?callback=fos.Router.setData,1544741887,,200
7f8bc5,127.0.0.1,GET,http://megaman3d.local/app_dev.php/loadPlayer,1544741888,,200
c43d87,127.0.0.1,GET,http://megaman3d.local/app_dev.php/play,1544741975,,200
d565f8,127.0.0.1,GET,http://megaman3d.local/app_dev.php/js/routing?callback=fos.Router.setData,1544741975,,200
7d95ca,127.0.0.1,GET,http://megaman3d.local/app_dev.php/loadPlayer,1544741975,,200
63d3c6,127.0.0.1,GET,http://megaman3d.local/app_dev.php/armory/1,1544741976,,200
7ef464,127.0.0.1,GET,http://megaman3d.local/app_dev.php/play,1544742032,,200
2e904b,127.0.0.1,GET,http://megaman3d.local/app_dev.php/js/routing?callback=fos.Router.setData,1544742033,,200
8cfa64,127.0.0.1,GET,http://megaman3d.local/app_dev.php/loadPlayer,1544742033,,200
3a91be,127.0.0.1,GET,http://megaman3d.local/app_dev.php/armory/1,1544742033,,200
72dd99,127.0.0.1,GET,http://megaman3d.local/app_dev.php/play,1544742440,,200
a8f10c,127.0.0.1,GET,http://megaman3d.local/app_dev.php/js/routing?callback=fos.Router.setData,1544742440,,200
7e0ba6,127.0.0.1,GET,http://megaman3d.local/app_dev.php/loadPlayer,1544742440,,200
57150d,127.0.0.1,GET,http://megaman3d.local/app_dev.php/play,1544742472,,200
9cfd4d,127.0.0.1,GET,http://megaman3d.local/app_dev.php/js/routing?callback=fos.Router.setData,1544742472,,200
9d8432,127.0.0.1,GET,http://megaman3d.local/app_dev.php/loadPlayer,1544742472,,200
b25144,127.0.0.1,GET,http://megaman3d.local/app_dev.php/armory/1,1544742472,,200
80a23a,127.0.0.1,GET,http://megaman3d.local/app_dev.php/play,1544742506,,200
05e978,127.0.0.1,GET,http://megaman3d.local/app_dev.php/js/routing?callback=fos.Router.setData,1544742506,,200
581ffd,127.0.0.1,GET,http://megaman3d.local/app_dev.php/loadPlayer,1544742507,,200
dfe559,127.0.0.1,GET,http://megaman3d.local/app_dev.php/armory/1,1544742507,,200
fdfddb,127.0.0.1,GET,http://megaman3d.local/app_dev.php/play,1544742588,,200
6fd51c,127.0.0.1,GET,http://megaman3d.local/app_dev.php/js/routing?callback=fos.Router.setData,1544742588,,200
2a11d3,127.0.0.1,GET,http://megaman3d.local/app_dev.php/loadPlayer,1544742588,,200
a102f9,127.0.0.1,GET,http://megaman3d.local/app_dev.php/armory/1,1544742588,,200
9886fd,127.0.0.1,GET,http://megaman3d.local/app_dev.php/play,1544742607,,200
c00fbe,127.0.0.1,GET,http://megaman3d.local/app_dev.php/js/routing?callback=fos.Router.setData,1544742608,,200
31ba29,127.0.0.1,GET,http://megaman3d.local/app_dev.php/loadPlayer,1544742608,,200
828b49,127.0.0.1,GET,http://megaman3d.local/app_dev.php/armory/1,1544742608,,200
35a7c4,127.0.0.1,GET,http://megaman3d.local/app_dev.php/play,1544742631,,200
94851e,127.0.0.1,GET,http://megaman3d.local/app_dev.php/js/routing?callback=fos.Router.setData,1544742632,,200
f59472,127.0.0.1,GET,http://megaman3d.local/app_dev.php/loadPlayer,1544742632,,200
112d76,127.0.0.1,GET,http://megaman3d.local/app_dev.php/armory/1,1544742632,,200
eacdc1,127.0.0.1,GET,http://megaman3d.local/app_dev.php/armory/1,1544742676,,200
6d7b57,127.0.0.1,GET,http://megaman3d.local/app_dev.php/play,1544743013,,200
773cbd,127.0.0.1,GET,http://megaman3d.local/app_dev.php/js/routing?callback=fos.Router.setData,1544743013,,200
94e0b8,127.0.0.1,GET,http://megaman3d.local/app_dev.php/loadPlayer,1544743013,,200
11c445,127.0.0.1,GET,http://megaman3d.local/app_dev.php/armory/1,1544743014,,200
febfc5,127.0.0.1,GET,http://megaman3d.local/app_dev.php/play,1544743022,,200
6bb1ec,127.0.0.1,GET,http://megaman3d.local/app_dev.php/js/routing?callback=fos.Router.setData,1544743022,,200
2de37a,127.0.0.1,GET,http://megaman3d.local/app_dev.php/loadPlayer,1544743023,,200
33ae9e,127.0.0.1,GET,http://megaman3d.local/app_dev.php/armory/1,1544743023,,200
dd5b08,127.0.0.1,GET,http://megaman3d.local/app_dev.php/play,1544743053,,200
4eef00,127.0.0.1,GET,http://megaman3d.local/app_dev.php/js/routing?callback=fos.Router.setData,1544743053,,200
b432dd,127.0.0.1,GET,http://megaman3d.local/app_dev.php/loadPlayer,1544743054,,200
bf77eb,127.0.0.1,GET,http://megaman3d.local/app_dev.php/armory/1,1544743055,,200
292122,127.0.0.1,GET,http://megaman3d.local/app_dev.php/play,1544743063,,200
8f11b1,127.0.0.1,GET,http://megaman3d.local/app_dev.php/js/routing?callback=fos.Router.setData,1544743063,,200
ebe956,127.0.0.1,GET,http://megaman3d.local/app_dev.php/loadPlayer,1544743064,,200
aec4c4,127.0.0.1,GET,http://megaman3d.local/app_dev.php/armory/1,1544743064,,200
dd58e8,127.0.0.1,GET,http://megaman3d.local/app_dev.php/play,1544743127,,200
a66f61,127.0.0.1,GET,http://megaman3d.local/app_dev.php/js/routing?callback=fos.Router.setData,1544743127,,200
96129c,127.0.0.1,GET,http://megaman3d.local/app_dev.php/loadPlayer,1544743127,,200
4c29ff,127.0.0.1,GET,http://megaman3d.local/app_dev.php/armory/1,1544743127,,200
13f72d,127.0.0.1,GET,http://megaman3d.local/app_dev.php/play,1544743128,,200
6ead9f,127.0.0.1,GET,http://megaman3d.local/app_dev.php/js/routing?callback=fos.Router.setData,1544743129,,200
54acb7,127.0.0.1,GET,http://megaman3d.local/app_dev.php/loadPlayer,1544743130,,200
4d2bad,127.0.0.1,GET,http://megaman3d.local/app_dev.php/armory/1,1544743130,,200
c79b56,127.0.0.1,GET,http://megaman3d.local/app_dev.php/play,1544743476,,200
518f84,127.0.0.1,GET,http://megaman3d.local/app_dev.php/js/routing?callback=fos.Router.setData,1544743477,,200
d21164,127.0.0.1,GET,http://megaman3d.local/app_dev.php/loadPlayer,1544743477,,200
1c3dad,127.0.0.1,GET,http://megaman3d.local/app_dev.php/armory/1,1544743478,,200
803f96,127.0.0.1,GET,http://megaman3d.local/app_dev.php/play,1544743559,,200
a26cef,127.0.0.1,GET,http://megaman3d.local/app_dev.php/js/routing?callback=fos.Router.setData,1544743559,,200
322392,127.0.0.1,GET,http://megaman3d.local/app_dev.php/loadPlayer,1544743560,,200
a810fc,127.0.0.1,GET,http://megaman3d.local/app_dev.php/armory/1,1544743561,,200
6b65e1,127.0.0.1,GET,http://megaman3d.local/app_dev.php/play,1544743592,,200
94dbd5,127.0.0.1,GET,http://megaman3d.local/app_dev.php/js/routing?callback=fos.Router.setData,1544743592,,200
d43e08,127.0.0.1,GET,http://megaman3d.local/app_dev.php/loadPlayer,1544743593,,200
1ad7c5,127.0.0.1,GET,http://megaman3d.local/app_dev.php/armory/1,1544743594,,200
cf7afa,127.0.0.1,GET,http://megaman3d.local/app_dev.php/play,1544743632,,200
4fd2be,127.0.0.1,GET,http://megaman3d.local/app_dev.php/js/routing?callback=fos.Router.setData,1544743632,,200
3a9580,127.0.0.1,GET,http://megaman3d.local/app_dev.php/loadPlayer,1544743632,,200
c0dee8,127.0.0.1,GET,http://megaman3d.local/app_dev.php/armory/1,1544743633,,200
4d2a1a,127.0.0.1,GET,http://megaman3d.local/app_dev.php/play,1544743659,,200
5b400e,127.0.0.1,GET,http://megaman3d.local/app_dev.php/js/routing?callback=fos.Router.setData,1544743659,,200
9c1322,127.0.0.1,GET,http://megaman3d.local/app_dev.php/loadPlayer,1544743660,,200
e318fd,127.0.0.1,GET,http://megaman3d.local/app_dev.php/armory/1,1544743660,,200
6a8b25,127.0.0.1,GET,http://megaman3d.local/app_dev.php/play,1544743695,,200
4786de,127.0.0.1,GET,http://megaman3d.local/app_dev.php/js/routing?callback=fos.Router.setData,1544743695,,200
cf63a9,127.0.0.1,GET,http://megaman3d.local/app_dev.php/loadPlayer,1544743696,,200
215ba6,127.0.0.1,GET,http://megaman3d.local/app_dev.php/armory/1,1544743697,,200
6ac259,127.0.0.1,GET,http://megaman3d.local/app_dev.php/play,1544743871,,200
2604c1,127.0.0.1,GET,http://megaman3d.local/app_dev.php/js/routing?callback=fos.Router.setData,1544743871,,200
60a6fd,127.0.0.1,GET,http://megaman3d.local/app_dev.php/loadPlayer,1544743872,,200
5cfbbd,127.0.0.1,GET,http://megaman3d.local/app_dev.php/armory/1,1544743872,,200
696e36,127.0.0.1,GET,http://megaman3d.local/app_dev.php/play,1544743933,,200
4525c7,127.0.0.1,GET,http://megaman3d.local/app_dev.php/js/routing?callback=fos.Router.setData,1544743934,,200
086754,127.0.0.1,GET,http://megaman3d.local/app_dev.php/loadPlayer,1544743934,,200
da12f8,127.0.0.1,GET,http://megaman3d.local/app_dev.php/armory/1,1544743935,,200
da4a75,127.0.0.1,GET,http://megaman3d.local/app_dev.php/play,1544744067,,200
24d686,127.0.0.1,GET,http://megaman3d.local/app_dev.php/js/routing?callback=fos.Router.setData,1544744067,,200
9cd557,127.0.0.1,GET,http://megaman3d.local/app_dev.php/loadPlayer,1544744067,,200
adcac7,127.0.0.1,GET,http://megaman3d.local/app_dev.php/armory/1,1544744067,,200
ae91bd,127.0.0.1,GET,http://megaman3d.local/app_dev.php/play,1544744265,,200
7a539e,127.0.0.1,GET,http://megaman3d.local/app_dev.php/js/routing?callback=fos.Router.setData,1544744265,,200
59a86f,127.0.0.1,GET,http://megaman3d.local/app_dev.php/loadPlayer,1544744265,,200
d21478,127.0.0.1,GET,http://megaman3d.local/app_dev.php/armory/1,1544744265,,200
ae2178,127.0.0.1,GET,http://megaman3d.local/app_dev.php/play,1544744282,,200
53148b,127.0.0.1,GET,http://megaman3d.local/app_dev.php/js/routing?callback=fos.Router.setData,1544744282,,200
cbe362,127.0.0.1,GET,http://megaman3d.local/app_dev.php/loadPlayer,1544744282,,200
c6ed6a,127.0.0.1,GET,http://megaman3d.local/app_dev.php/armory/1,1544744282,,200
042359,127.0.0.1,GET,http://megaman3d.local/app_dev.php/play,1544744349,,200
11867b,127.0.0.1,GET,http://megaman3d.local/app_dev.php/js/routing?callback=fos.Router.setData,1544744349,,200
8a3825,127.0.0.1,GET,http://megaman3d.local/app_dev.php/loadPlayer,1544744350,,200
6c1dd3,127.0.0.1,GET,http://megaman3d.local/app_dev.php/armory/1,1544744350,,200
a5b64d,127.0.0.1,GET,http://megaman3d.local/app_dev.php/play,1544744359,,200
29500f,127.0.0.1,GET,http://megaman3d.local/app_dev.php/js/routing?callback=fos.Router.setData,1544744359,,200
723562,127.0.0.1,GET,http://megaman3d.local/app_dev.php/loadPlayer,1544744359,,200
be2983,127.0.0.1,GET,http://megaman3d.local/app_dev.php/armory/1,1544744359,,200
804fe5,127.0.0.1,GET,http://megaman3d.local/app_dev.php/play,1544744439,,200
8ee72d,127.0.0.1,GET,http://megaman3d.local/app_dev.php/js/routing?callback=fos.Router.setData,1544744439,,200
3a2460,127.0.0.1,GET,http://megaman3d.local/app_dev.php/loadPlayer,1544744439,,200
65292c,127.0.0.1,GET,http://megaman3d.local/app_dev.php/armory/1,1544744439,,200
c1bc54,127.0.0.1,GET,http://megaman3d.local/app_dev.php/play,1544744482,,200
059b21,127.0.0.1,GET,http://megaman3d.local/app_dev.php/js/routing?callback=fos.Router.setData,1544744483,,200
b9dca5,127.0.0.1,GET,http://megaman3d.local/app_dev.php/loadPlayer,1544744483,,200
2a6c83,127.0.0.1,GET,http://megaman3d.local/app_dev.php/armory/1,1544744483,,200
6450de,127.0.0.1,GET,http://megaman3d.local/app_dev.php/play,1544744501,,200
b4fe05,127.0.0.1,GET,http://megaman3d.local/app_dev.php/js/routing?callback=fos.Router.setData,1544744501,,200
5727b0,127.0.0.1,GET,http://megaman3d.local/app_dev.php/loadPlayer,1544744501,,200
bd17f5,127.0.0.1,GET,http://megaman3d.local/app_dev.php/armory/1,1544744501,,200
c46be4,127.0.0.1,GET,http://megaman3d.local/app_dev.php/play,1544744582,,200
765344,127.0.0.1,GET,http://megaman3d.local/app_dev.php/js/routing?callback=fos.Router.setData,1544744582,,200
c0d637,127.0.0.1,GET,http://megaman3d.local/app_dev.php/loadPlayer,1544744582,,200
b1cc2a,127.0.0.1,GET,http://megaman3d.local/app_dev.php/armory/1,1544744583,,200
368341,127.0.0.1,GET,http://megaman3d.local/app_dev.php/play,1544744599,,200
f93ae2,127.0.0.1,GET,http://megaman3d.local/app_dev.php/js/routing?callback=fos.Router.setData,1544744599,,200
84eaf5,127.0.0.1,GET,http://megaman3d.local/app_dev.php/loadPlayer,1544744599,,200
a1ca7f,127.0.0.1,GET,http://megaman3d.local/app_dev.php/armory/1,1544744599,,200
3140de,127.0.0.1,GET,http://megaman3d.local/app_dev.php/play,1544744664,,200
318d60,127.0.0.1,GET,http://megaman3d.local/app_dev.php/js/routing?callback=fos.Router.setData,1544744664,,200
f0df7a,127.0.0.1,GET,http://megaman3d.local/app_dev.php/loadPlayer,1544744664,,200
43e9ed,127.0.0.1,GET,http://megaman3d.local/app_dev.php/armory/1,1544744664,,200
d6845a,127.0.0.1,GET,http://megaman3d.local/app_dev.php/play,1544744695,,200
01137d,127.0.0.1,GET,http://megaman3d.local/app_dev.php/js/routing?callback=fos.Router.setData,1544744695,,200
f5ce07,127.0.0.1,GET,http://megaman3d.local/app_dev.php/loadPlayer,1544744695,,200
873e9e,127.0.0.1,GET,http://megaman3d.local/app_dev.php/armory/1,1544744695,,200
e8bafe,127.0.0.1,GET,http://megaman3d.local/app_dev.php/play,1544744724,,200
e830f1,127.0.0.1,GET,http://megaman3d.local/app_dev.php/js/routing?callback=fos.Router.setData,1544744724,,200
cfac97,127.0.0.1,GET,http://megaman3d.local/app_dev.php/loadPlayer,1544744724,,200
93012b,127.0.0.1,GET,http://megaman3d.local/app_dev.php/armory/1,1544744725,,200
e2890b,127.0.0.1,GET,http://megaman3d.local/app_dev.php/play,1544744738,,200
0e7dfe,127.0.0.1,GET,http://megaman3d.local/app_dev.php/js/routing?callback=fos.Router.setData,1544744739,,200
d6daca,127.0.0.1,GET,http://megaman3d.local/app_dev.php/loadPlayer,1544744739,,200
a53b23,127.0.0.1,GET,http://megaman3d.local/app_dev.php/armory/1,1544744739,,200
ef16b6,127.0.0.1,GET,http://megaman3d.local/app_dev.php/play,1544744748,,200
205c14,127.0.0.1,GET,http://megaman3d.local/app_dev.php/js/routing?callback=fos.Router.setData,1544744748,,200
4a8284,127.0.0.1,GET,http://megaman3d.local/app_dev.php/loadPlayer,1544744749,,200
e0feeb,127.0.0.1,GET,http://megaman3d.local/app_dev.php/armory/1,1544744749,,200
ff3685,127.0.0.1,GET,http://megaman3d.local/app_dev.php/play,1544744757,,200
80ff36,127.0.0.1,GET,http://megaman3d.local/app_dev.php/js/routing?callback=fos.Router.setData,1544744757,,200
1cc1bc,127.0.0.1,GET,http://megaman3d.local/app_dev.php/loadPlayer,1544744757,,200
feac65,127.0.0.1,GET,http://megaman3d.local/app_dev.php/armory/1,1544744758,,200
ec8d70,127.0.0.1,GET,http://megaman3d.local/app_dev.php/play,1544744815,,200
d2d2ba,127.0.0.1,GET,http://megaman3d.local/app_dev.php/js/routing?callback=fos.Router.setData,1544744816,,200
33afe8,127.0.0.1,GET,http://megaman3d.local/app_dev.php/loadPlayer,1544744816,,200
cedeee,127.0.0.1,GET,http://megaman3d.local/app_dev.php/armory/1,1544744816,,200
0b23d8,127.0.0.1,GET,http://megaman3d.local/app_dev.php/play,1544744896,,200
e0ecaa,127.0.0.1,GET,http://megaman3d.local/app_dev.php/js/routing?callback=fos.Router.setData,1544744897,,200
0a0c15,127.0.0.1,GET,http://megaman3d.local/app_dev.php/loadPlayer,1544744897,,200
0928d7,127.0.0.1,GET,http://megaman3d.local/app_dev.php/armory/1,1544744897,,200
71052c,127.0.0.1,GET,http://megaman3d.local/app_dev.php/armory/1,1544744909,,200
d9cebd,127.0.0.1,GET,http://megaman3d.local/app_dev.php/armory/1,1544744919,9abe73,200
9abe73,127.0.0.1,GET,http://megaman3d.local/app_dev.php/armory/1,1544744919,,404
e236eb,127.0.0.1,GET,http://megaman3d.local/app_dev.php/login,1544744949,,200
8a2476,127.0.0.1,POST,http://megaman3d.local/app_dev.php/login_check,1544744953,,302
dce62c,127.0.0.1,GET,http://megaman3d.local/app_dev.php/,1544744953,,200
2a6547,127.0.0.1,GET,http://megaman3d.local/app_dev.php/play,1544744954,,200
630f4a,127.0.0.1,GET,http://megaman3d.local/app_dev.php/js/routing?callback=fos.Router.setData,1544744954,,200
9f95ae,127.0.0.1,GET,http://megaman3d.local/app_dev.php/loadPlayer,1544744955,,200
40b726,127.0.0.1,GET,http://megaman3d.local/app_dev.php/armory/1,1544744955,,200
33cde4,127.0.0.1,GET,http://megaman3d.local/app_dev.php/play,1544745027,,200
a180df,127.0.0.1,GET,http://megaman3d.local/app_dev.php/js/routing?callback=fos.Router.setData,1544745027,,200
58f8a9,127.0.0.1,GET,http://megaman3d.local/app_dev.php/loadPlayer,1544745027,,200
26d223,127.0.0.1,GET,http://megaman3d.local/app_dev.php/armory/1,1544745027,,200
430bfe,127.0.0.1,GET,http://megaman3d.local/app_dev.php/play,1544745093,,200
ffa0d6,127.0.0.1,GET,http://megaman3d.local/app_dev.php/js/routing?callback=fos.Router.setData,1544745093,,200
4957dd,127.0.0.1,GET,http://megaman3d.local/app_dev.php/loadPlayer,1544745093,,200
ca9579,127.0.0.1,GET,http://megaman3d.local/app_dev.php/armory/1,1544745093,,200
f5252d,127.0.0.1,GET,http://megaman3d.local/app_dev.php/play,1544745160,,200
cd392f,127.0.0.1,GET,http://megaman3d.local/app_dev.php/js/routing?callback=fos.Router.setData,1544745160,,200
12597a,127.0.0.1,GET,http://megaman3d.local/app_dev.php/loadPlayer,1544745160,,200
f3f544,127.0.0.1,GET,http://megaman3d.local/app_dev.php/armory/1,1544745160,,200
132b53,127.0.0.1,GET,http://megaman3d.local/app_dev.php/armory/1,1544745171,,200
9f9d02,127.0.0.1,GET,http://megaman3d.local/app_dev.php/play,1544745199,,200
af5384,127.0.0.1,GET,http://megaman3d.local/app_dev.php/js/routing?callback=fos.Router.setData,1544745199,,200
a7a4f0,127.0.0.1,GET,http://megaman3d.local/app_dev.php/loadPlayer,1544745200,,200
2da532,127.0.0.1,GET,http://megaman3d.local/app_dev.php/armory/1,1544745201,,200
481c0d,127.0.0.1,GET,http://megaman3d.local/app_dev.php/play,1544745221,,200
143aa6,127.0.0.1,GET,http://megaman3d.local/app_dev.php/js/routing?callback=fos.Router.setData,1544745221,,200
a7ee41,127.0.0.1,GET,http://megaman3d.local/app_dev.php/loadPlayer,1544745221,,200
842c6d,127.0.0.1,GET,http://megaman3d.local/app_dev.php/armory/1,1544745222,,200
860e82,127.0.0.1,GET,http://megaman3d.local/app_dev.php/play,1544745222,,200
db5bfe,127.0.0.1,GET,http://megaman3d.local/app_dev.php/js/routing?callback=fos.Router.setData,1544745223,,200
b5f203,127.0.0.1,GET,http://megaman3d.local/app_dev.php/loadPlayer,1544745223,,200
ec2533,127.0.0.1,GET,http://megaman3d.local/app_dev.php/armory/1,1544745224,,200
14a706,127.0.0.1,GET,http://megaman3d.local/app_dev.php/play,1544745229,,200
5c0b03,127.0.0.1,GET,http://megaman3d.local/app_dev.php/js/routing?callback=fos.Router.setData,1544745229,,200
217913,127.0.0.1,GET,http://megaman3d.local/app_dev.php/loadPlayer,1544745230,,200
84eee1,127.0.0.1,GET,http://megaman3d.local/app_dev.php/armory/1,1544745230,,200
57afe7,127.0.0.1,GET,http://megaman3d.local/app_dev.php/play,1544745271,,200
b6e04c,127.0.0.1,GET,http://megaman3d.local/app_dev.php/js/routing?callback=fos.Router.setData,1544745272,,200
f72154,127.0.0.1,GET,http://megaman3d.local/app_dev.php/loadPlayer,1544745272,,200
663537,127.0.0.1,GET,http://megaman3d.local/app_dev.php/armory/1,1544745273,,200
72fac6,127.0.0.1,GET,http://megaman3d.local/app_dev.php/play,1544745277,,200
05f5c6,127.0.0.1,GET,http://megaman3d.local/app_dev.php/js/routing?callback=fos.Router.setData,1544745277,,200
83d59a,127.0.0.1,GET,http://megaman3d.local/app_dev.php/loadPlayer,1544745278,,200
9b9ab0,127.0.0.1,GET,http://megaman3d.local/app_dev.php/armory/1,1544745278,,200
07714c,127.0.0.1,GET,http://megaman3d.local/app_dev.php/play,1544745492,,200
43f666,127.0.0.1,GET,http://megaman3d.local/app_dev.php/js/routing?callback=fos.Router.setData,1544745492,,200
9dff3b,127.0.0.1,GET,http://megaman3d.local/app_dev.php/loadPlayer,1544745493,,200
fbb64f,127.0.0.1,GET,http://megaman3d.local/app_dev.php/armory/1,1544745493,,200
5f977f,127.0.0.1,GET,http://megaman3d.local/app_dev.php/play,1544745502,,200
c873d4,127.0.0.1,GET,http://megaman3d.local/app_dev.php/js/routing?callback=fos.Router.setData,1544745503,,200
c622ee,127.0.0.1,GET,http://megaman3d.local/app_dev.php/loadPlayer,1544745503,,200
5a321b,127.0.0.1,GET,http://megaman3d.local/app_dev.php/armory/1,1544745504,,200
d570de,127.0.0.1,GET,http://megaman3d.local/app_dev.php/play,1544745508,,200
2b35f9,127.0.0.1,GET,http://megaman3d.local/app_dev.php/js/routing?callback=fos.Router.setData,1544745508,,200
7465d5,127.0.0.1,GET,http://megaman3d.local/app_dev.php/loadPlayer,1544745509,,200
b73ce2,127.0.0.1,GET,http://megaman3d.local/app_dev.php/armory/1,1544745509,,200
5cdd7a,127.0.0.1,GET,http://megaman3d.local/app_dev.php/play,1544745514,,200
84bf96,127.0.0.1,GET,http://megaman3d.local/app_dev.php/js/routing?callback=fos.Router.setData,1544745515,,200
81edb5,127.0.0.1,GET,http://megaman3d.local/app_dev.php/loadPlayer,1544745515,,200
d6e5dd,127.0.0.1,GET,http://megaman3d.local/app_dev.php/armory/1,1544745516,,200
0a5ec7,127.0.0.1,GET,http://megaman3d.local/app_dev.php/play,1544745532,,200
74d71d,127.0.0.1,GET,http://megaman3d.local/app_dev.php/js/routing?callback=fos.Router.setData,1544745532,,200
ccfa71,127.0.0.1,GET,http://megaman3d.local/app_dev.php/loadPlayer,1544745533,,200
40e9de,127.0.0.1,GET,http://megaman3d.local/app_dev.php/armory/1,1544745533,,200
920349,127.0.0.1,GET,http://megaman3d.local/app_dev.php/play,1544745741,,200
8f7dc9,127.0.0.1,GET,http://megaman3d.local/app_dev.php/js/routing?callback=fos.Router.setData,1544745741,,200
3e0b44,127.0.0.1,GET,http://megaman3d.local/app_dev.php/loadPlayer,1544745742,,200
46bfcc,127.0.0.1,GET,http://megaman3d.local/app_dev.php/armory/1,1544745742,,200
51df88,127.0.0.1,GET,http://megaman3d.local/app_dev.php/play,1544745775,,200
2c0b61,127.0.0.1,GET,http://megaman3d.local/app_dev.php/js/routing?callback=fos.Router.setData,1544745775,,200
331613,127.0.0.1,GET,http://megaman3d.local/app_dev.php/loadPlayer,1544745776,,200
945f97,127.0.0.1,GET,http://megaman3d.local/app_dev.php/armory/1,1544745776,,200
6835db,127.0.0.1,GET,http://megaman3d.local/app_dev.php/play,1544745833,,200
641675,127.0.0.1,GET,http://megaman3d.local/app_dev.php/js/routing?callback=fos.Router.setData,1544745833,,200
3d414c,127.0.0.1,GET,http://megaman3d.local/app_dev.php/loadPlayer,1544745834,,200
213c85,127.0.0.1,GET,http://megaman3d.local/app_dev.php/armory/1,1544745834,,200
18eb0f,127.0.0.1,GET,http://megaman3d.local/app_dev.php/play,1544746495,,200
14c608,127.0.0.1,GET,http://megaman3d.local/app_dev.php/js/routing?callback=fos.Router.setData,1544746495,,200
07ba81,127.0.0.1,GET,http://megaman3d.local/app_dev.php/loadPlayer,1544746496,,200
0093d4,127.0.0.1,GET,http://megaman3d.local/app_dev.php/armory/1,1544746496,,200
a42985,127.0.0.1,GET,http://megaman3d.local/app_dev.php/play,1544746512,,200
723c31,127.0.0.1,GET,http://megaman3d.local/app_dev.php/js/routing?callback=fos.Router.setData,1544746512,,200
c16388,127.0.0.1,GET,http://megaman3d.local/app_dev.php/loadPlayer,1544746513,,200
79ed29,127.0.0.1,GET,http://megaman3d.local/app_dev.php/armory/1,1544746514,,200
e21df5,127.0.0.1,GET,http://megaman3d.local/app_dev.php/play,1544746826,,200
136e2c,127.0.0.1,GET,http://megaman3d.local/app_dev.php/js/routing?callback=fos.Router.setData,1544746827,,200
e7343c,127.0.0.1,GET,http://megaman3d.local/app_dev.php/loadPlayer,1544746827,,200
fae786,127.0.0.1,GET,http://megaman3d.local/app_dev.php/play,1544746844,,200
4bc846,127.0.0.1,GET,http://megaman3d.local/app_dev.php/js/routing?callback=fos.Router.setData,1544746844,,200
961be1,127.0.0.1,GET,http://megaman3d.local/app_dev.php/loadPlayer,1544746844,,200
dab5df,127.0.0.1,GET,http://megaman3d.local/app_dev.php/armory/1,1544746845,,200
6f3cce,127.0.0.1,GET,http://megaman3d.local/app_dev.php/play,1544746940,,200
031f8b,127.0.0.1,GET,http://megaman3d.local/app_dev.php/js/routing?callback=fos.Router.setData,1544746940,,200
c2423e,127.0.0.1,GET,http://megaman3d.local/app_dev.php/loadPlayer,1544746940,,200
17e586,127.0.0.1,GET,http://megaman3d.local/app_dev.php/armory/1,1544746940,,200
5a224c,127.0.0.1,GET,http://megaman3d.local/app_dev.php/play,1544747031,,200
7fa613,127.0.0.1,GET,http://megaman3d.local/app_dev.php/js/routing?callback=fos.Router.setData,1544747031,,200
ff9919,127.0.0.1,GET,http://megaman3d.local/app_dev.php/loadPlayer,1544747031,,200
7ac489,127.0.0.1,GET,http://megaman3d.local/app_dev.php/armory/1,1544747032,,200
e1a4c0,127.0.0.1,GET,http://megaman3d.local/app_dev.php/play,1544747042,,200
413f2c,127.0.0.1,GET,http://megaman3d.local/app_dev.php/js/routing?callback=fos.Router.setData,1544747043,,200
ab77b5,127.0.0.1,GET,http://megaman3d.local/app_dev.php/loadPlayer,1544747043,,200
db5104,127.0.0.1,GET,http://megaman3d.local/app_dev.php/play,1544747044,,200
afd265,127.0.0.1,GET,http://megaman3d.local/app_dev.php/armory/1,1544747044,,200
e87bc9,127.0.0.1,GET,http://megaman3d.local/app_dev.php/js/routing?callback=fos.Router.setData,1544747044,,200
4447ea,127.0.0.1,GET,http://megaman3d.local/app_dev.php/loadPlayer,1544747044,,200
4ab505,127.0.0.1,GET,http://megaman3d.local/app_dev.php/armory/1,1544747045,,200
c50966,127.0.0.1,GET,http://megaman3d.local/app_dev.php/play,1544747209,,200
30cf56,127.0.0.1,GET,http://megaman3d.local/app_dev.php/js/routing?callback=fos.Router.setData,1544747210,,200
3e5d66,127.0.0.1,GET,http://megaman3d.local/app_dev.php/loadPlayer,1544747211,,200
df3e69,127.0.0.1,GET,http://megaman3d.local/app_dev.php/play,1544747211,,200
a450ed,127.0.0.1,GET,http://megaman3d.local/app_dev.php/js/routing?callback=fos.Router.setData,1544747211,,200
cbd23a,127.0.0.1,GET,http://megaman3d.local/app_dev.php/armory/1,1544747211,,200
1c7e88,127.0.0.1,GET,http://megaman3d.local/app_dev.php/loadPlayer,1544747213,,200
ab99e3,127.0.0.1,GET,http://megaman3d.local/app_dev.php/armory/1,1544747213,,200
f86326,127.0.0.1,GET,http://megaman3d.local/app_dev.php/play,1544747218,,200
c4566f,127.0.0.1,GET,http://megaman3d.local/app_dev.php/js/routing?callback=fos.Router.setData,1544747219,,200
79d7a4,127.0.0.1,GET,http://megaman3d.local/app_dev.php/loadPlayer,1544747219,,200
a65b91,127.0.0.1,GET,http://megaman3d.local/app_dev.php/armory/1,1544747220,,200
f0cd76,127.0.0.1,GET,http://megaman3d.local/app_dev.php/play,1544747221,,200
bdc077,127.0.0.1,GET,http://megaman3d.local/app_dev.php/js/routing?callback=fos.Router.setData,1544747221,,200
730cfe,127.0.0.1,GET,http://megaman3d.local/app_dev.php/loadPlayer,1544747222,,200
1150f3,127.0.0.1,GET,http://megaman3d.local/app_dev.php/armory/1,1544747222,,200
758243,127.0.0.1,GET,http://megaman3d.local/app_dev.php/armory/1,1544747243,,200
ec6002,127.0.0.1,GET,http://megaman3d.local/app_dev.php/play,1544747294,,200
f3b187,127.0.0.1,GET,http://megaman3d.local/app_dev.php/js/routing?callback=fos.Router.setData,1544747295,,200
bedb56,127.0.0.1,GET,http://megaman3d.local/app_dev.php/loadPlayer,1544747295,,200
ecdb37,127.0.0.1,GET,http://megaman3d.local/app_dev.php/armory/1,1544747296,,200
ab3ee5,127.0.0.1,GET,http://megaman3d.local/app_dev.php/armory/1,1544747316,,200
563473,127.0.0.1,GET,http://megaman3d.local/app_dev.php/play,1544747549,,200
18c2ee,127.0.0.1,GET,http://megaman3d.local/app_dev.php/js/routing?callback=fos.Router.setData,1544747549,,200
eba657,127.0.0.1,GET,http://megaman3d.local/app_dev.php/loadPlayer,1544747550,,200
6c9ce9,127.0.0.1,GET,http://megaman3d.local/app_dev.php/armory/1,1544747551,,200
863c60,127.0.0.1,GET,http://megaman3d.local/app_dev.php/play,1544747743,,200
c7cad9,127.0.0.1,GET,http://megaman3d.local/app_dev.php/js/routing?callback=fos.Router.setData,1544747743,,200
22c7e8,127.0.0.1,GET,http://megaman3d.local/app_dev.php/loadPlayer,1544747744,,200
cb5fd9,127.0.0.1,GET,http://megaman3d.local/app_dev.php/armory/1,1544747745,,200
9d3245,127.0.0.1,GET,http://megaman3d.local/app_dev.php/play,1544747748,,200
f600b5,127.0.0.1,GET,http://megaman3d.local/app_dev.php/js/routing?callback=fos.Router.setData,1544747748,,200
3e8a09,127.0.0.1,GET,http://megaman3d.local/app_dev.php/loadPlayer,1544747748,,200
d39115,127.0.0.1,GET,http://megaman3d.local/app_dev.php/armory/1,1544747749,,200
331f0e,127.0.0.1,GET,http://megaman3d.local/app_dev.php/armory/1,1544747768,,200
19080f,127.0.0.1,GET,http://megaman3d.local/app_dev.php/play,1544748094,,200
302a0c,127.0.0.1,GET,http://megaman3d.local/app_dev.php/js/routing?callback=fos.Router.setData,1544748095,,200
97eed4,127.0.0.1,GET,http://megaman3d.local/app_dev.php/loadPlayer,1544748096,,200
56df5d,127.0.0.1,GET,http://megaman3d.local/app_dev.php/armory/1,1544748096,,200
a5c503,127.0.0.1,GET,http://megaman3d.local/app_dev.php/play,1544748125,,200
bea9f9,127.0.0.1,GET,http://megaman3d.local/app_dev.php/js/routing?callback=fos.Router.setData,1544748126,,200
a0cdb4,127.0.0.1,GET,http://megaman3d.local/app_dev.php/loadPlayer,1544748126,,200
68b20f,127.0.0.1,GET,http://megaman3d.local/app_dev.php/armory/1,1544748127,,200
a750c5,127.0.0.1,GET,http://megaman3d.local/app_dev.php/armory/1,1544748141,,200
37560b,127.0.0.1,GET,http://megaman3d.local/app_dev.php/play,1544748153,,200
3b1851,127.0.0.1,GET,http://megaman3d.local/app_dev.php/js/routing?callback=fos.Router.setData,1544748153,,200
fb3b0c,127.0.0.1,GET,http://megaman3d.local/app_dev.php/loadPlayer,1544748155,,200
c3fd17,127.0.0.1,GET,http://megaman3d.local/app_dev.php/armory/1,1544748156,,200
a9f154,127.0.0.1,GET,http://megaman3d.local/app_dev.php/armory/1,1544748192,,200
fd18fc,127.0.0.1,GET,http://megaman3d.local/app_dev.php/play,1544748929,,200
a20165,127.0.0.1,GET,http://megaman3d.local/app_dev.php/js/routing?callback=fos.Router.setData,1544748929,,200
6503a3,127.0.0.1,GET,http://megaman3d.local/app_dev.php/play,1544748930,,200
c38aa0,127.0.0.1,GET,http://megaman3d.local/app_dev.php/js/routing?callback=fos.Router.setData,1544748930,,200
09429e,127.0.0.1,GET,http://megaman3d.local/app_dev.php/loadPlayer,1544748930,,200
5050ef,127.0.0.1,GET,http://megaman3d.local/app_dev.php/loadPlayer,1544748930,,200
035e26,127.0.0.1,GET,http://megaman3d.local/app_dev.php/armory/1,1544748931,,200
213664,127.0.0.1,GET,http://megaman3d.local/app_dev.php/armory/1,1544748931,,200
01cfb6,127.0.0.1,GET,http://megaman3d.local/app_dev.php/armory/1,1544748950,,200
ae0c8f,127.0.0.1,GET,http://megaman3d.local/app_dev.php/js/routing?callback=fos.Router.setData,1544749582,,302
cae191,127.0.0.1,GET,http://megaman3d.local/app_dev.php/loadPlayer,1544749582,,302
56ddf8,127.0.0.1,GET,http://megaman3d.local/app_dev.php/play,1544749586,,302
5ade1a,127.0.0.1,GET,http://megaman3d.local/app_dev.php/login,1544749586,,200
f62659,127.0.0.1,GET,http://megaman3d.local/app_dev.php/play,1544749587,,302
0c9d71,127.0.0.1,GET,http://megaman3d.local/app_dev.php/login,1544749587,,200
036bb7,127.0.0.1,POST,http://megaman3d.local/app_dev.php/login_check,1544749591,,302
269786,127.0.0.1,GET,http://megaman3d.local/app_dev.php/play,1544749591,,200
745834,127.0.0.1,GET,http://megaman3d.local/app_dev.php/js/routing?callback=fos.Router.setData,1544749591,,200
b90b50,127.0.0.1,GET,http://megaman3d.local/app_dev.php/loadPlayer,1544749591,,200
dd646a,127.0.0.1,POST,http://megaman3d.local/app_dev.php/login_check,1544749593,,302
be3114,127.0.0.1,GET,http://megaman3d.local/app_dev.php/,1544749593,,200
bd4808,127.0.0.1,GET,http://megaman3d.local/app_dev.php/armory/1,1544749612,,200
c85eba,127.0.0.1,GET,http://megaman3d.local/app_dev.php/play,1544749615,,200
d2367e,127.0.0.1,GET,http://megaman3d.local/app_dev.php/js/routing?callback=fos.Router.setData,1544749615,,200
6c4229,127.0.0.1,GET,http://megaman3d.local/app_dev.php/loadPlayer,1544749615,,200
04197e,127.0.0.1,GET,http://megaman3d.local/app_dev.php/armory/1,1544749616,,200
f74d67,127.0.0.1,GET,http://megaman3d.local/app_dev.php/armory/1,1544749633,,200
95319b,127.0.0.1,GET,http://megaman3d.local/app_dev.php/play,1544749817,,200
653bf0,127.0.0.1,GET,http://megaman3d.local/app_dev.php/js/routing?callback=fos.Router.setData,1544749818,,200
68b5b3,127.0.0.1,GET,http://megaman3d.local/app_dev.php/loadPlayer,1544749818,,200
e89219,127.0.0.1,GET,http://megaman3d.local/app_dev.php/armory/1,1544749818,,200
a2a7a3,127.0.0.1,GET,http://megaman3d.local/app_dev.php/armory/1,1544749838,,200
b651f4,127.0.0.1,GET,http://megaman3d.local/app_dev.php/play,1544749873,,200
189fed,127.0.0.1,GET,http://megaman3d.local/app_dev.php/js/routing?callback=fos.Router.setData,1544749873,,200
211562,127.0.0.1,GET,http://megaman3d.local/app_dev.php/loadPlayer,1544749873,,200
502c37,127.0.0.1,GET,http://megaman3d.local/app_dev.php/armory/1,1544749874,,200
20cb16,127.0.0.1,GET,http://megaman3d.local/app_dev.php/armory/1,1544749888,,200
fbae49,127.0.0.1,GET,http://megaman3d.local/app_dev.php/play,1544750958,,200
74ca1b,127.0.0.1,GET,http://megaman3d.local/app_dev.php/js/routing?callback=fos.Router.setData,1544750958,,200
b41e78,127.0.0.1,GET,http://megaman3d.local/app_dev.php/play,1544750960,,200
ceba6f,127.0.0.1,GET,http://megaman3d.local/app_dev.php/loadPlayer,1544750960,,200
9fde3d,127.0.0.1,GET,http://megaman3d.local/app_dev.php/js/routing?callback=fos.Router.setData,1544750960,,200
526f2d,127.0.0.1,GET,http://megaman3d.local/app_dev.php/loadPlayer,1544750961,,200
254623,127.0.0.1,GET,http://megaman3d.local/app_dev.php/armory/1,1544750961,,200
2557a3,127.0.0.1,GET,http://megaman3d.local/app_dev.php/armory/1,1544750961,,200
35cbb0,127.0.0.1,GET,http://megaman3d.local/app_dev.php/armory/1,1544750980,,200
850075,127.0.0.1,GET,http://megaman3d.local/app_dev.php/play,1544751100,,200
5cd920,127.0.0.1,GET,http://megaman3d.local/app_dev.php/js/routing?callback=fos.Router.setData,1544751101,,200
b349a9,127.0.0.1,GET,http://megaman3d.local/app_dev.php/loadPlayer,1544751102,,200
d6eae7,127.0.0.1,GET,http://megaman3d.local/app_dev.php/play,1544751102,,200
cb4f7b,127.0.0.1,GET,http://megaman3d.local/app_dev.php/js/routing?callback=fos.Router.setData,1544751103,,200
913c79,127.0.0.1,GET,http://megaman3d.local/app_dev.php/armory/1,1544751103,,200
96ebde,127.0.0.1,GET,http://megaman3d.local/app_dev.php/loadPlayer,1544751103,,200
475328,127.0.0.1,GET,http://megaman3d.local/app_dev.php/armory/1,1544751104,,200
ccffed,127.0.0.1,GET,http://megaman3d.local/app_dev.php/armory/1,1544751136,,200
25dc58,127.0.0.1,GET,http://megaman3d.local/app_dev.php/play,1544751290,,200
24ed1c,127.0.0.1,GET,http://megaman3d.local/app_dev.php/js/routing?callback=fos.Router.setData,1544751290,,200
7ade99,127.0.0.1,GET,http://megaman3d.local/app_dev.php/loadPlayer,1544751291,,200
caebf2,127.0.0.1,GET,http://megaman3d.local/app_dev.php/play,1544751291,,200
cc9f48,127.0.0.1,GET,http://megaman3d.local/app_dev.php/js/routing?callback=fos.Router.setData,1544751291,,200
0ee0c3,127.0.0.1,GET,http://megaman3d.local/app_dev.php/armory/1,1544751292,,200
7110db,127.0.0.1,GET,http://megaman3d.local/app_dev.php/loadPlayer,1544751292,,200
3f8efd,127.0.0.1,GET,http://megaman3d.local/app_dev.php/armory/1,1544751293,,200
235381,127.0.0.1,GET,http://megaman3d.local/app_dev.php/armory/1,1544751310,,200
